<?xml version="1.0" encoding="utf-8"?>
<!-- Generator: Adobe Illustrator 21.0.0, SVG Export Plug-In . SVG Version: 6.00 Build 0)  -->
<svg version="1.1" id="Layer_1" xmlns="http://www.w3.org/2000/svg" xmlns:xlink="http://www.w3.org/1999/xlink" x="0px" y="0px"
	 viewBox="0 0 25 25" style="enable-background:new 0 0 25 25;" xml:space="preserve">
<style type="text/css">
	.st0{fill:#CCCCCC;}
	.st1{fill:#FFFFFF;}
</style>
<title>Ресурс 10</title>
<g id="New_Symbol_22-3">
	<circle class="st0" cx="12.5" cy="12.5" r="12.5"/>
	<g>
		<path class="st1" d="M18.8,19.9h-1c0-2.9-2.4-5.3-5.3-5.3c-2.9,0-5.3,2.4-5.3,5.3h-1c0-3.5,2.8-6.3,6.3-6.3S18.8,16.4,18.8,19.9z"
			/>
	</g>
	<g>
		<path class="st1" d="M12.5,12.3c-2.1,0-3.8-1.7-3.8-3.8c0-2.1,1.7-3.9,3.8-3.9c2.1,0,3.8,1.7,3.8,3.9
			C16.2,10.6,14.6,12.3,12.5,12.3z M12.5,5.6c-1.5,0-2.8,1.3-2.8,2.9c0,1.6,1.2,2.8,2.8,2.8s2.8-1.3,2.8-2.8
			C15.2,6.9,14,5.6,12.5,5.6z"/>
	</g>
</g>
</svg>
